
[0. 1.]
[0.001004 1.      ]
[0.00200999 1.000001  ]
[0.00301797 1.00000301]
[0.00402794 1.00000603]
[0.00503989 1.00001005]
[0.00605382 1.00001508]
[0.00706973 1.00002112]
[0.00808761 1.00002817]
[0.00910746 1.00003623]
[0.01012928 1.0000453 ]
[0.01115307 1.00005538]
[0.01217882 1.00006648]
[0.01320653 1.00007859]
[0.01423619 1.00009172]
[0.01526781 1.00010586]
[0.01630138 1.00012103]
[0.0173369  1.00013721]
[0.01837437 1.00015441]
[0.01941377 1.00017263]
[0.02045512 1.00019187]
[0.0214984  1.00021213]
[0.02254361 1.00023342]
[0.02359076 1.00025573]
[0.02463983 1.00027906]
[0.02569083 1.00030342]
[0.02674375 1.00032881]
[0.0277986  1.00035523]
[0.02885535 1.00038267]
[0.02991403 1.00041114]
[0.03097461 1.00044064]
[0.0320371  1.00047118]
[0.0331015  1.00050274]
[0.0341678  1.00053534]
[0.035236   1.00056898]
[0.03630609 1.00060364]
[0.03737809 1.00063934]
[0.03845197 1.00067608]
[0.03952774 1.00071386]
[0.0406054  1.00075267]
[0.04168494 1.00079253]
[0.04276636 1.00083342]
[0.04384966 1.00087535]
[0.04493484 1.00091833]
[0.04602189 1.00096234]
[0.04711081 1.0010074 ]
[0.04820159 1.00105351]
[0.04929424 1.00110065]
[0.05038876 1.00114885]
[0.05148513 1.00119809]
[0.05258336 1.00124837]
[0.05368344 1.00129971]
[0.05478537 1.00135209]
[0.05588915 1.00140553]
[0.05699478 1.00146001]
[0.05810225 1.00151554]
[0.05921156 1.00157213]
[0.06032271 1.00162977]
[0.06143569 1.00168846]
[0.06255051 1.00174821]
[0.06366716 1.00180901]
[0.06478563 1.00187087]
[0.06590593 1.00193379]
[0.06702805 1.00199776]
[0.068152   1.00206279]
[0.06927775 1.00212888]
[0.07040533 1.00219603]
[0.07153471 1.00226424]
[0.07266591 1.00233351]
[0.07379891 1.00240384]
[0.07493372 1.00247523]
[0.07607032 1.00254769]
[0.07720873 1.00262121]
[0.07834893 1.0026958 ]
[0.07949093 1.00277146]
[0.08063472 1.00284817]
[0.0817803  1.00292596]
[0.08292767 1.00300482]
[0.08407681 1.00308474]
[0.08522775 1.00316573]
[0.08638046 1.00324779]
[0.08753494 1.00333093]
[0.0886912  1.00341513]
[0.08984924 1.00350041]
[0.09100904 1.00358675]
[0.09217061 1.00367418]
[0.09333394 1.00376267]
[0.09449904 1.00385224]
[0.09566589 1.00394289]
[0.0968345  1.00403461]
[0.09800487 1.00412741]
[0.09917698 1.00422129]
[0.10035085 1.00431625]
[0.10152647 1.00441228]
[0.10270383 1.0045094 ]
[0.10388293 1.00460759]
[0.10506377 1.00470687]
[0.10624635 1.00480722]
[0.10743066 1.00490866]
[0.10861671 1.00501118]
[0.10980449 1.00511479]
[0.11099399 1.00521948]
[0.11218522 1.00532525]
[0.11337818 1.00543211]
[0.11457286 1.00554006]
[0.11576925 1.00564909]
[0.11696736 1.00575921]
[0.11816718 1.00587042]
[0.11936872 1.00598272]
[0.12057197 1.0060961 ]
[0.12177692 1.00621058]
[0.12298357 1.00632615]
[0.12419193 1.0064428 ]
[0.12540199 1.00656055]
[0.12661375 1.00667939]
[0.1278272  1.00679933]
[0.12904235 1.00692036]
[0.13025918 1.00704248]
[0.13147771 1.00716569]
[0.13269792 1.00729001]
[0.13391981 1.00741541]
[0.13514339 1.00754192]
[0.13636864 1.00766952]
[0.13759557 1.00779822]
[0.13882418 1.00792802]
[0.14005446 1.00805891]
[0.14128641 1.00819091]
[0.14252003 1.008324  ]
[0.14375531 1.0084582 ]
[0.14499226 1.0085935 ]
[0.14623087 1.0087299 ]
[0.14747114 1.0088674 ]
[0.14871306 1.009006  ]
[0.14995664 1.00914571]
[0.15120187 1.00928652]
[0.15244876 1.00942843]
[0.15369729 1.00957145]
[0.15494747 1.00971558]
[0.15619929 1.00986081]
[0.15745275 1.01000715]
[0.15870785 1.0101546 ]
[0.15996459 1.01030315]
[0.16122296 1.01045281]
[0.16248297 1.01060358]
[0.16374461 1.01075546]
[0.16500787 1.01090845]
[0.16627277 1.01106255]
[0.16753928 1.01121776]
[0.16880742 1.01137408]
[0.17007718 1.01153151]
[0.17134856 1.01169006]
[0.17262155 1.01184972]
[0.17389616 1.01201049]
[0.17517238 1.01217238]
[0.1764502  1.01233538]
[0.17772964 1.01249949]
[0.17901068 1.01266472]
[0.18029332 1.01283107]
[0.18157757 1.01299853]
[0.18286341 1.01316711]
[0.18415085 1.0133368 ]
[0.18543989 1.01350762]
[0.18673051 1.01367955]
[0.18802273 1.0138526 ]
[0.18931654 1.01402677]
[0.19061193 1.01420206]
[0.19190891 1.01437847]
[0.19320747 1.014556  ]
[0.19450761 1.01473465]
[0.19580933 1.01491443]
[0.19711263 1.01509532]
[0.1984175  1.01527734]
[0.19972394 1.01546048]
[0.20103195 1.01564474]
[0.20234153 1.01583013]
[0.20365268 1.01601664]
[0.20496539 1.01620428]
[0.20627967 1.01639304]
[0.2075955  1.01658292]
[0.20891289 1.01677394]
[0.21023184 1.01696608]
[0.21155234 1.01715934]
[0.2128744  1.01735373]
[0.214198   1.01754925]
[0.21552315 1.0177459 ]
[0.21684985 1.01794368]
[0.2181781  1.01814259]
[0.21950788 1.01834262]
[0.22083921 1.01854379]
[0.22217208 1.01874608]
[0.22350648 1.01894951]
[0.22484242 1.01915407]
[0.22617988 1.01935975]
[0.22751888 1.01956657]
[0.22885941 1.01977453]
[0.23020147 1.01998361]
[0.23154505 1.02019383]
[0.23289015 1.02040518]
[0.23423678 1.02061767]
[0.23558492 1.02083129]
[0.23693458 1.02104604]
[0.23828576 1.02126193]
[0.23963845 1.02147895]
[0.24099265 1.02169711]
[0.24234837 1.02191641]
[0.24370558 1.02213684]
[0.24506431 1.02235841]
[0.24642454 1.02258111]
[0.24778627 1.02280496]
[0.2491495  1.02302994]
[0.25051424 1.02325606]
[0.25188046 1.02348332]
[0.25324819 1.02371171]
[0.2546174  1.02394125]
[0.25598811 1.02417193]
[0.2573603  1.02440374]
[0.25873399 1.0246367 ]
[0.26010915 1.0248708 ]
[0.26148581 1.02510603]
[0.26286394 1.02534241]
[0.26424356 1.02557993]
[0.26562465 1.0258186 ]
[0.26700722 1.0260584 ]
[0.26839126 1.02629935]
[0.26977678 1.02654145]
[0.27116377 1.02678468]
[0.27255222 1.02702906]
[0.27394215 1.02727458]
[0.27533354 1.02752125]
[0.27672639 1.02776906]
[0.27812071 1.02801802]
[0.27951649 1.02826812]
[0.28091372 1.02851937]
[0.28231241 1.02877177]
[0.28371256 1.02902531]
[0.28511416 1.02927999]
[0.28651721 1.02953583]
[0.28792171 1.02979281]
[0.28932766 1.03005094]
[0.29073506 1.03031021]
[0.2921439  1.03057064]
[0.29355418 1.03083221]
[0.29496591 1.03109493]
[0.29637907 1.03135881]
[0.29779367 1.03162383]
[0.29920971 1.03189   ]
[0.30062718 1.03215732]
[0.30204608 1.03242579]
[0.30346641 1.03269541]
[0.30488818 1.03296618]
[0.30631137 1.0332381 ]
[0.30773598 1.03351117]
[0.30916202 1.0337854 ]
[0.31058948 1.03406077]
[0.31201836 1.0343373 ]
[0.31344866 1.03461498]
[0.31488038 1.03489382]
[0.31631351 1.0351738 ]
[0.31774806 1.03545494]
[0.31918402 1.03573724]
[0.32062139 1.03602068]
[0.32206017 1.03630528]
[0.32350035 1.03659104]
[0.32494194 1.03687795]
[0.32638494 1.03716601]
[0.32782933 1.03745523]
[0.32927513 1.0377456 ]
[0.33072232 1.03803713]
[0.33217092 1.03832982]
[0.3336209  1.03862366]
[0.33507229 1.03891866]
[0.33652506 1.03921481]
[0.33797923 1.03951212]
[0.33943478 1.03981059]
[0.34089172 1.04011021]
[0.34235005 1.04041099]
[0.34380976 1.04071293]
[0.34527085 1.04101603]
[0.34673333 1.04132029]
[0.34819718 1.0416257 ]
[0.34966241 1.04193227]
[0.35112902 1.04224   ]
[0.352597   1.04254889]
[0.35406635 1.04285894]
[0.35553708 1.04317014]
[0.35700918 1.04348251]
[0.35848264 1.04379604]
[0.35995747 1.04411072]
[0.36143367 1.04442657]
[0.36291123 1.04474358]
[0.36439015 1.04506175]
[0.36587043 1.04538107]
[0.36735207 1.04570156]
[0.36883507 1.04602321]
[0.37031942 1.04634603]
[0.37180513 1.04667   ]
[0.37329219 1.04699513]
[0.3747806  1.04732143]
[0.37627036 1.04764889]
[0.37776147 1.04797751]
[0.37925392 1.0483073 ]
[0.38074772 1.04863824]
[0.38224286 1.04897035]
[0.38373935 1.04930362]
[0.38523717 1.04963806]
[0.38673634 1.04997366]
[0.38823684 1.05031042]
[0.38973867 1.05064835]
[0.39124185 1.05098744]
[0.39274635 1.05132769]
[0.39425218 1.05166911]
[0.39575935 1.0520117 ]
[0.39726784 1.05235544]
[0.39877766 1.05270036]
[0.40028881 1.05304643]
[0.40180128 1.05339367]
[0.40331507 1.05374208]
[0.40483018 1.05409166]
[0.40634661 1.05444239]
[0.40786436 1.0547943 ]
[0.40938342 1.05514737]
[0.4109038 1.0555016]
[0.4124255  1.05585701]
[0.4139485  1.05621358]
[0.41547282 1.05657131]
[0.41699845 1.05693021]
[0.41852538 1.05729028]
[0.42005362 1.05765151]
[0.42158316 1.05801392]
[0.42311401 1.05837749]
[0.42464616 1.05874222]
[0.42617961 1.05910813]
[0.42771436 1.0594752 ]
[0.42925041 1.05984344]
[0.43078775 1.06021284]
[0.43232639 1.06058342]
[0.43386632 1.06095516]
[0.43540754 1.06132807]
[0.43695005 1.06170215]
[0.43849385 1.0620774 ]
[0.44003894 1.06245382]
[0.44158532 1.0628314 ]
[0.44313298 1.06321016]
[0.44468193 1.06359008]
[0.44623215 1.06397117]
[0.44778366 1.06435343]
[0.44933644 1.06473686]
[0.45089051 1.06512146]
[0.45244585 1.06550723]
[0.45400246 1.06589417]
[0.45556035 1.06628228]
[0.45711952 1.06667156]
[0.45867995 1.067062  ]
[0.46024165 1.06745362]
[0.46180462 1.06784641]
[0.46336886 1.06824037]
[0.46493436 1.0686355 ]
[0.46650113 1.0690318 ]
[0.46806916 1.06942926]
[0.46963845 1.0698279 ]
[0.471209   1.07022771]
[0.47278081 1.0706287 ]
[0.47435388 1.07103085]
[0.4759282  1.07143417]
[0.47750378 1.07183867]
[0.47908061 1.07224433]
[0.48065869 1.07265117]
[0.48223802 1.07305917]
[0.48381861 1.07346835]
[0.48540044 1.0738787 ]
[0.48698352 1.07429023]
[0.48856784 1.07470292]
[0.49015341 1.07511678]
[0.49174022 1.07553182]
[0.49332827 1.07594803]
[0.49491756 1.07636541]
[0.49650809 1.07678396]
[0.49809986 1.07720368]
[0.49969286 1.07762458]
[0.5012871  1.07804665]
[0.50288257 1.07846989]
[0.50447928 1.0788943 ]
[0.50607721 1.07931989]
[0.50767638 1.07974664]
[0.50927677 1.08017457]
[0.51087839 1.08060368]
[0.51248124 1.08103395]
[0.51408531 1.0814654 ]
[0.51569061 1.08189802]
[0.51729712 1.08233181]
[0.51890486 1.08276678]
[0.52051382 1.08320291]
[0.52212399 1.08364023]
[0.52373539 1.08407871]
[0.52534799 1.08451837]
[0.52696182 1.0849592 ]
[0.52857685 1.0854012 ]
[0.5301931  1.08584437]
[0.53181056 1.08628872]
[0.53342922 1.08673424]
[0.5350491  1.08718094]
[0.53667018 1.08762881]
[0.53829247 1.08807785]
[0.53991596 1.08852806]
[0.54154066 1.08897945]
[0.54316656 1.08943201]
[0.54479366 1.08988575]
[0.54642196 1.09034066]
[0.54805145 1.09079674]
[0.54968215 1.09125399]
[0.55131404 1.09171242]
[0.55294712 1.09217202]
[0.5545814 1.0926328]
[0.55621687 1.09309474]
[0.55785353 1.09355787]
[0.55949138 1.09402216]
[0.56113042 1.09448763]
[0.56277065 1.09495427]
[0.56441206 1.09542209]
[0.56605466 1.09589108]
[0.56769844 1.09636124]
[0.5693434  1.09683258]
[0.57098955 1.09730509]
[0.57263688 1.09777878]
[0.57428538 1.09825363]
[0.57593506 1.09872967]
[0.57758592 1.09920687]
[0.57923796 1.09968525]
[0.58089117 1.1001648 ]
[0.58254555 1.10064553]
[0.5842011  1.10112743]
[0.58585783 1.1016105 ]
[0.58751572 1.10209475]
[0.58917479 1.10258017]
[0.59083502 1.10306677]
[0.59249641 1.10355454]
[0.59415898 1.10404348]
[0.5958227  1.10453359]
[0.59748759 1.10502488]
[0.59915364 1.10551734]
[0.60082085 1.10601098]
[0.60248922 1.10650579]
[0.60415875 1.10700177]
[0.60582943 1.10749893]
[0.60750127 1.10799726]
[0.60917427 1.10849677]
[0.61084841 1.10899744]
[0.61252371 1.10949929]
[0.61420017 1.11000232]
[0.61587777 1.11050652]
[0.61755652 1.11101189]
[0.61923642 1.11151843]
[0.62091746 1.11202615]
[0.62259966 1.11253504]
[0.62428299 1.11304511]
[0.62596747 1.11355634]
[0.62765309 1.11406875]
[0.62933985 1.11458234]
[0.63102776 1.1150971 ]
[0.6327168  1.11561303]
[0.63440698 1.11613013]
[0.63609829 1.11664841]
[0.63779075 1.11716786]
[0.63948433 1.11768848]
[0.64117905 1.11821028]
[0.6428749  1.11873325]
[0.64457189 1.11925739]
[0.64627   1.1197827]
[0.64796924 1.12030919]
[0.64966961 1.12083685]
[0.65137111 1.12136568]
[0.65307374 1.12189569]
[0.65477748 1.12242687]
[0.65648236 1.12295922]
[0.65818835 1.12349274]
[0.65989547 1.12402743]
[0.6616037 1.1245633]
[0.66331306 1.12510034]
[0.66502353 1.12563856]
[0.66673512 1.12617794]
[0.66844783 1.1267185 ]
[0.67016165 1.12726023]
[0.67187659 1.12780313]
[0.67359264 1.1283472 ]
[0.6753098  1.12889245]
[0.67702808 1.12943886]
[0.67874746 1.12998645]
[0.68046795 1.13053522]
[0.68218955 1.13108515]
[0.68391226 1.13163625]
[0.68563607 1.13218853]
[0.68736098 1.13274198]
[0.689087   1.13329659]
[0.69081413 1.13385239]
[0.69254235 1.13440935]
[0.69427168 1.13496748]
[0.6960021  1.13552678]
[0.69773362 1.13608726]
[0.69946624 1.13664891]
[0.70119996 1.13721172]
[0.70293477 1.13777571]
[0.70467068 1.13834087]
[0.70640768 1.1389072 ]
[0.70814577 1.1394747 ]
[0.70988495 1.14004337]
[0.71162522 1.14061321]
[0.71336659 1.14118423]
[0.71510904 1.14175641]
[0.71685258 1.14232976]
[0.7185972  1.14290428]
[0.72034291 1.14347998]
[0.72208971 1.14405684]
[0.72383758 1.14463487]
[0.72558654 1.14521407]
[0.72733658 1.14579445]
[0.7290877  1.14637599]
[0.73083991 1.1469587 ]
[0.73259318 1.14754258]
[0.73434754 1.14812763]
[0.73610297 1.14871385]
[0.73785948 1.14930124]
[0.73961706 1.1498898 ]
[0.74137572 1.15047953]
[0.74313545 1.15107042]
[0.74489625 1.15166249]
[0.74665812 1.15225572]
[0.74842106 1.15285012]
[0.75018506 1.1534457 ]
[0.75195014 1.15404243]
[0.75371628 1.15464034]
[0.75548349 1.15523942]
[0.75725176 1.15583966]
[0.7590211  1.15644107]
[0.7607915  1.15704365]
[0.76256296 1.1576474 ]
[0.76433548 1.15825232]
[0.76610906 1.1588584 ]
[0.7678837  1.15946565]
[0.7696594  1.16007407]
[0.77143615 1.16068366]
[0.77321397 1.16129441]
[0.77499283 1.16190633]
[0.77677275 1.16251941]
[0.77855373 1.16313367]
[0.78033575 1.16374909]
[0.78211883 1.16436567]
[0.78390296 1.16498343]
[0.78568814 1.16560235]
[0.78747436 1.16622243]
[0.78926164 1.16684368]
[0.79104996 1.1674661 ]
[0.79283932 1.16808969]
[0.79462973 1.16871444]
[0.79642119 1.16934035]
[0.79821369 1.16996743]
[0.80000723 1.17059568]
[0.80180181 1.17122509]
[0.80359743 1.17185567]
[0.80539409 1.17248741]
[0.80719179 1.17312031]
[0.80899053 1.17375439]
[0.8107903  1.17438962]
[0.81259111 1.17502602]
[0.81439295 1.17566359]
[0.81619583 1.17630232]
[0.81799974 1.17694221]
[0.81980468 1.17758327]
[0.82161066 1.17822549]
[0.82341766 1.17886888]
[0.82522569 1.17951342]
[0.82703476 1.18015914]
[0.82884485 1.18080601]
[0.83065596 1.18145405]
[0.8324681  1.18210325]
[0.83428127 1.18275362]
[0.83609546 1.18340515]
[0.83791068 1.18405784]
[0.83972691 1.18471169]
[0.84154417 1.1853667 ]
[0.84336245 1.18602288]
[0.84518175 1.18668022]
[0.84700206 1.18733872]
[0.8488234  1.18799839]
[0.85064575 1.18865921]
[0.85246912 1.1893212 ]
[0.8542935  1.18998435]
[0.8561189  1.19064865]
[0.85794531 1.19131412]
[0.85977273 1.19198076]
[0.86160117 1.19264855]
[0.86343061 1.1933175 ]
[0.86526107 1.19398761]
[0.86709254 1.19465889]
[0.86892501 1.19533132]
[0.87075849 1.19600491]
[0.87259298 1.19667967]
[0.87442847 1.19735558]
[0.87626497 1.19803265]
[0.87810247 1.19871089]
[0.87994098 1.19939028]
[0.88178049 1.20007083]
[0.883621   1.20075254]
[0.88546251 1.20143541]
[0.88730502 1.20211943]
[0.88914853 1.20280462]
[0.89099304 1.20349096]
[0.89283854 1.20417847]
[0.89468504 1.20486713]
[0.89653254 1.20555694]
[0.89838103 1.20624792]
[0.90023052 1.20694005]
[0.902081   1.20763334]
[0.90393247 1.20832779]
[0.90578493 1.20902339]
[0.90763838 1.20972016]
[0.90949283 1.21041807]
[0.91134826 1.21111715]
[0.91320468 1.21181738]
[0.91506209 1.21251877]
[0.91692048 1.21322131]
[0.91877986 1.21392501]
[0.92064023 1.21462987]
[0.92250158 1.21533588]
[0.92436391 1.21604304]
[0.92622723 1.21675136]
[0.92809152 1.21746084]
[0.9299568  1.21817147]
[0.93182306 1.21888325]
[0.9336903  1.21959619]
[0.93555851 1.22031029]
[0.9374277  1.22102554]
[0.93929788 1.22174194]
[0.94116902 1.22245949]
[0.94304114 1.2231782 ]
[0.94491424 1.22389807]
[0.94678831 1.22461908]
[0.94866335 1.22534125]
[0.95053937 1.22606457]
[0.95241635 1.22678905]
[0.95429431 1.22751468]
[0.95617323 1.22824146]
[0.95805313 1.22896939]
[0.95993399 1.22969847]
[0.96181582 1.23042871]
[0.96369862 1.23116009]
[0.96558238 1.23189263]
[0.96746711 1.23262632]
[0.9693528  1.23336116]
[0.97123946 1.23409715]
[0.97312708 1.2348343 ]
[0.97501566 1.23557259]
[0.9769052  1.23631203]
[0.9787957  1.23705263]
[0.98068716 1.23779437]
[0.98257958 1.23853726]
[0.98447296 1.2392813 ]
[0.98636729 1.2400265 ]
[0.98826259 1.24077284]
[0.99015883 1.24152033]
[0.99205604 1.24226896]
[0.99395419 1.24301875]
[0.9958533  1.24376969]
[0.99775337 1.24452177]
[0.99965438 1.245275  ]
[1.00155635 1.24602938]
[1.00345926 1.24678491]
[1.00536313 1.24754158]
[1.00726795 1.2482994 ]
[1.00917371 1.24905837]
[1.01108042 1.24981849]
[1.01298808 1.25057975]
[1.01489668 1.25134216]
[1.01680623 1.25210571]
[1.01871672 1.25287041]
[1.02062816 1.25363626]
[1.02254054 1.25440325]
[1.02445386 1.25517139]
[1.02636813 1.25594067]
[1.02828333 1.2567111 ]
[1.03019948 1.25748267]
[1.03211656 1.25825539]
[1.03403458 1.25902925]
[1.03595354 1.25980425]
[1.03787344 1.2605804 ]
[1.03979427 1.2613577 ]
[1.04171604 1.26213613]
[1.04363875 1.26291571]
[1.04556238 1.26369644]
[1.04748696 1.2644783 ]
[1.04941246 1.26526131]
[1.0513389  1.26604546]
[1.05326626 1.26683076]
[1.05519456 1.26761719]
[1.05712379 1.26840477]
[1.05905395 1.26919349]
[1.06098503 1.26998335]
[1.06291705 1.27077435]
[1.06484999 1.27156649]
[1.06678385 1.27235978]
[1.06871864 1.2731542 ]
[1.07065436 1.27394976]
[1.072591   1.27474647]
[1.07452857 1.27554431]
[1.07646705 1.2763433 ]
[1.07840646 1.27714342]
[1.08034679 1.27794468]
[1.08228805 1.27874709]
[1.08423022 1.27955063]
[1.08617331 1.28035531]
[1.08811732 1.28116113]
[1.09006224 1.28196808]
[1.09200809 1.28277618]
[1.09395485 1.28358541]
[1.09590252 1.28439578]
[1.09785111 1.28520728]
[1.09980062 1.28601993]
[1.10175104 1.28683371]
[1.10370237 1.28764863]
[1.10565461 1.28846468]
[1.10760777 1.28928187]
[1.10956183 1.2901002 ]
[1.11151681 1.29091966]
[1.1134727  1.29174025]
[1.11542949 1.29256199]
[1.11738719 1.29338485]
[1.1193458  1.29420886]
[1.12130532 1.29503399]
[1.12326574 1.29586026]
[1.12522707 1.29668767]
[1.12718931 1.29751621]
[1.12915244 1.29834588]
[1.13111649 1.29917669]
[1.13308143 1.30000863]
[1.13504727 1.3008417 ]
[1.13701402 1.30167591]
[1.13898167 1.30251125]
[1.14095022 1.30334772]
[1.14291966 1.30418532]
[1.14489001 1.30502405]
[1.14686125 1.30586392]
[1.1488334  1.30670492]
[1.15080643 1.30754704]
[1.15278037 1.3083903 ]
[1.1547552  1.30923469]
[1.15673092 1.31008021]
[1.15870754 1.31092687]
[1.16068505 1.31177465]
[1.16266346 1.31262356]
[1.16464275 1.3134736 ]
[1.16662294 1.31432477]
[1.16860402 1.31517706]
[1.17058599 1.31603049]
[1.17256885 1.31688505]
[1.1745526  1.31774073]
[1.17653723 1.31859754]
[1.17852275 1.31945548]
[1.18050916 1.32031455]
[1.18249646 1.32117474]
[1.18448464 1.32203607]
[1.18647371 1.32289851]
[1.18846366 1.32376209]
[1.19045449 1.32462679]
[1.19244621 1.32549262]
[1.19443881 1.32635957]
[1.19643229 1.32722765]
[1.19842666 1.32809686]
[1.2004219  1.32896719]
[1.20241802 1.32983864]
[1.20441503 1.33071122]
[1.20641291 1.33158492]
[1.20841167 1.33245975]
[1.2104113 1.3333357]
[1.21241182 1.33421278]
[1.21441321 1.33509098]
[1.21641547 1.3359703 ]
[1.21841861 1.33685075]
[1.22042262 1.33773231]
[1.22242751 1.338615  ]
[1.22443327 1.33949882]
[1.2264399  1.34038375]
[1.22844741 1.34126981]
[1.23045578 1.34215698]
[1.23246503 1.34304528]
[1.23447514 1.3439347 ]
[1.23648613 1.34482524]
[1.23849798 1.3457169 ]
[1.2405107  1.34660969]
[1.24252429 1.34750359]
[1.24453874 1.34839861]
[1.24655407 1.34929475]
[1.24857025 1.35019201]
[1.2505873  1.35109038]
[1.25260522 1.35198988]
[1.254624  1.3528905]
[1.25664364 1.35379223]
[1.25866415 1.35469508]
[1.26068551 1.35559905]
[1.26270774 1.35650414]
[1.26473083 1.35741034]
[1.26675478 1.35831766]
[1.26877959 1.3592261 ]
[1.27080525 1.36013565]
[1.27283178 1.36104632]
[1.27485916 1.36195811]
[1.2768874  1.36287101]
[1.2789165  1.36378502]
[1.28094645 1.36470016]
[1.28297726 1.3656164 ]
[1.28500892 1.36653376]
[1.28704143 1.36745224]
[1.2890748  1.36837183]
[1.29110903 1.36929253]
[1.2931441  1.37021435]
[1.29518003 1.37113728]
[1.2972168  1.37206132]
[1.29925443 1.37298647]
[1.30129291 1.37391274]
[1.30333224 1.37484012]
[1.30537241 1.37576862]
[1.30741344 1.37669822]
[1.30945531 1.37762893]
[1.31149803 1.37856076]
[1.31354159 1.3794937 ]
[1.315586   1.38042775]
[1.31763126 1.3813629 ]
[1.31967736 1.38229917]
[1.3217243  1.38323655]
[1.32377209 1.38417504]
[1.32582072 1.38511464]
[1.32787019 1.38605534]
[1.32992051 1.38699716]
[1.33197166 1.38794008]
[1.33402366 1.38888411]
[1.3360765  1.38982925]
[1.33813017 1.3907755 ]
[1.34018469 1.39172285]
[1.34224004 1.39267131]
[1.34429623 1.39362088]
[1.34635326 1.39457156]
[1.34841113 1.39552334]
[1.35046983 1.39647623]
[1.35252936 1.39743022]
[1.35458974 1.39838532]
[1.35665094 1.39934153]
[1.35871298 1.40029883]
[1.36077585 1.40125725]
[1.36283956 1.40221677]
[1.3649041  1.40317739]
[1.36696947 1.40413912]
[1.36903567 1.40510195]
[1.3711027  1.40606588]
[1.37317056 1.40703092]
[1.37523925 1.40799706]
[1.37730877 1.4089643 ]
[1.37937911 1.40993264]
[1.38145029 1.41090209]
[1.38352229 1.41187264]
[1.38559512 1.41284429]
[1.38766877 1.41381704]
[1.38974325 1.41479089]
[1.39181856 1.41576584]
[1.39389468 1.4167419 ]
[1.39597164 1.41771905]
[1.39804941 1.4186973 ]
[1.40012801 1.41967665]
[1.40220743 1.4206571 ]
[1.40428767 1.42163866]
[1.40636874 1.4226213 ]
[1.40845062 1.42360505]
[1.41053332 1.4245899 ]
[1.41261685 1.42557584]
[1.41470119 1.42656288]
[1.41678635 1.42755102]
[1.41887233 1.42854026]
[1.42095912 1.42953059]
[1.42304674 1.43052202]
[1.42513517 1.43151454]
[1.42722441 1.43250816]
[1.42931447 1.43350288]
[1.43140534 1.43449869]
[1.43349703 1.4354956 ]
[1.43558953 1.4364936 ]
[1.43768285 1.43749269]
[1.43977697 1.43849288]
[1.44187191 1.43949417]
[1.44396766 1.44049654]
[1.44606422 1.44150002]
[1.4481616  1.44250458]
[1.45025978 1.44351024]
[1.45235877 1.44451699]
[1.45445857 1.44552483]
[1.45655918 1.44653376]
[1.45866059 1.44754379]
[1.46076281 1.4485549 ]
[1.46286584 1.44956711]
[1.46496968 1.45058041]
[1.46707432 1.4515948 ]
[1.46917977 1.45261028]
[1.47128602 1.45362685]
[1.47339307 1.45464451]
[1.47550093 1.45566326]
[1.47760959 1.45668309]
[1.47971905 1.45770402]
[1.48182932 1.45872604]
[1.48394039 1.45974914]
[1.48605226 1.46077333]
[1.48816492 1.46179861]
[1.49027839 1.46282498]
[1.49239266 1.46385243]
[1.49450773 1.46488097]
[1.49662359 1.4659106 ]
[1.49874026 1.46694131]
[1.50085772 1.46797311]
[1.50297598 1.46900599]
[1.50509503 1.47003996]
[1.50721488 1.47107502]
[1.50933553 1.47211116]
[1.51145697 1.47314838]
[1.5135792  1.47418669]
[1.51570223 1.47522608]
[1.51782605 1.47626656]
[1.51995066 1.47730812]
[1.52207607 1.47835076]
[1.52420227 1.47939449]
[1.52632926 1.48043929]
[1.52845704 1.48148518]
[1.53058561 1.48253216]
[1.53271497 1.48358021]
[1.53484512 1.48462934]
[1.53697606 1.48567956]
[1.53910779 1.48673086]
[1.5412403  1.48778323]
[1.54337361 1.48883669]
[1.5455077  1.48989123]
[1.54764257 1.49094684]
[1.54977823 1.49200354]
[1.55191468 1.49306131]
[1.55405191 1.49412017]
[1.55618993 1.4951801 ]
[1.55832873 1.49624111]
[1.56046831 1.4973032 ]
[1.56260868 1.49836636]
[1.56474983 1.4994306 ]
[1.56689176 1.50049592]
[1.56903447 1.50156232]
[1.57117797 1.50262979]
[1.57332224 1.50369834]
[1.57546729 1.50476796]
[1.57761313 1.50583866]
[1.57975974 1.50691044]
[1.58190713 1.50798329]
[1.5840553  1.50905721]
[1.58620425 1.51013221]
[1.58835397 1.51120828]
[1.59050447 1.51228543]
[1.59265575 1.51336365]
[1.5948078  1.51444294]
[1.59696063 1.5155233 ]
[1.59911423 1.51660474]
[1.6012686  1.51768725]
[1.60342375 1.51877083]
[1.60557968 1.51985548]
[1.60773637 1.52094121]
[1.60989384 1.522028  ]
[1.61205208 1.52311587]
[1.61421109 1.52420481]
[1.61637088 1.52529481]
[1.61853143 1.52638589]
[1.62069275 1.52747803]
[1.62285485 1.52857125]
[1.62501771 1.52966553]
[1.62718134 1.53076088]
[1.62934574 1.5318573 ]
[1.6315109  1.53295479]
[1.63367683 1.53405335]
[1.63584353 1.53515297]
[1.638011   1.53625366]
[1.64017923 1.53735542]
[1.64234823 1.53845824]
[1.64451799 1.53956213]
[1.64668852 1.54066709]
[1.64885981 1.54177311]
[1.65103186 1.5428802 ]
[1.65320468 1.54398835]
[1.65537826 1.54509757]
[1.6575526  1.54620785]
[1.6597277  1.54731919]
[1.66190356 1.5484316 ]
[1.66408019 1.54954507]
[1.66625757 1.55065961]
[1.66843572 1.55177521]
[1.67061462 1.55289187]
[1.67279428 1.55400959]
[1.6749747  1.55512837]
[1.67715588 1.55624822]
[1.67933782 1.55736913]
[1.68152051 1.5584911 ]
[1.68370396 1.55961413]
[1.68588817 1.56073821]
[1.68807313 1.56186336]